^C:\USERS\ТИМУР\SOURCE\REPOS\EDUCATIONPROJECT1\EDUCATIONPROJECT1.CPP
C:\USERS\Тимур\SOURCE\REPOS\EDUCATIONPROJECT1\X64\DEBUG\VC142.PDB
C:\USERS\Тимур\SOURCE\REPOS\EDUCATIONPROJECT1\X64\DEBUG\VC142.IDB
C:\USERS\Тимур\SOURCE\REPOS\EDUCATIONPROJECT1\X64\DEBUG\EDUCATIONPROJECT1.OBJ
